[
  {
    "name": {
      "first": "Rivas",
      "last": "Huffman"
    },
    "contact": {
      "first": "Willis",
      "last": "Mccray"
    },
    "email": "Rivas.Huffman@gmail.com",
    "phone": "+1 (808) 414-3002",
    "address": "177 Channel Avenue, Riner, Florida, 1279"
  },
  {
    "name": {
      "first": "Constance",
      "last": "Pugh"
    },
    "contact": {
      "first": "Lindsay",
      "last": "Kline"
    },
    "email": "Constance.Pugh@gmail.com",
    "phone": "+1 (967) 451-3184",
    "address": "743 Gerry Street, Glenbrook, Tennessee, 7091"
  },
  {
    "name": {
      "first": "Davidson",
      "last": "Keith"
    },
    "contact": {
      "first": "Marci",
      "last": "Rogers"
    },
    "email": "Davidson.Keith@gmail.com",
    "phone": "+1 (919) 483-3140",
    "address": "164 Norwood Avenue, Boomer, Nebraska, 6638"
  },
  {
    "name": {
      "first": "Grimes",
      "last": "Booth"
    },
    "contact": {
      "first": "Cynthia",
      "last": "George"
    },
    "email": "Grimes.Booth@gmail.com",
    "phone": "+1 (841) 526-3299",
    "address": "615 Union Avenue, Richmond, Vermont, 9315"
  },
  {
    "name": {
      "first": "Leanne",
      "last": "Hays"
    },
    "contact": {
      "first": "Rogers",
      "last": "Boyer"
    },
    "email": "Leanne.Hays@gmail.com",
    "phone": "+1 (870) 402-2935",
    "address": "101 Perry Place, Gilgo, Texas, 7262"
  },
  {
    "name": {
      "first": "Frye",
      "last": "Barton"
    },
    "contact": {
      "first": "Concetta",
      "last": "Petty"
    },
    "email": "Frye.Barton@gmail.com",
    "phone": "+1 (936) 565-3047",
    "address": "518 Gaylord Drive, Sterling, District Of Columbia, 3390"
  },
  {
    "name": {
      "first": "Keller",
      "last": "Blevins"
    },
    "contact": {
      "first": "Gretchen",
      "last": "Glenn"
    },
    "email": "Keller.Blevins@gmail.com",
    "phone": "+1 (903) 476-2374",
    "address": "493 Chauncey Street, Kraemer, Wyoming, 5612"
  },
  {
    "name": {
      "first": "Velazquez",
      "last": "Stafford"
    },
    "contact": {
      "first": "Jordan",
      "last": "Davenport"
    },
    "email": "Velazquez.Stafford@gmail.com",
    "phone": "+1 (955) 555-2458",
    "address": "529 Adams Street, Farmers, Kentucky, 1729"
  },
  {
    "name": {
      "first": "Ilene",
      "last": "Fleming"
    },
    "contact": {
      "first": "Therese",
      "last": "Gardner"
    },
    "email": "Ilene.Fleming@gmail.com",
    "phone": "+1 (907) 555-2179",
    "address": "833 Varanda Place, Hegins, California, 8742"
  },
  {
    "name": {
      "first": "Iva",
      "last": "Lamb"
    },
    "contact": {
      "first": "Clements",
      "last": "Moran"
    },
    "email": "Iva.Lamb@gmail.com",
    "phone": "+1 (956) 591-3380",
    "address": "859 Chestnut Avenue, Catharine, Palau, 9403"
  },
  {
    "name": {
      "first": "Rowena",
      "last": "Boyd"
    },
    "contact": {
      "first": "Spears",
      "last": "Cochran"
    },
    "email": "Rowena.Boyd@gmail.com",
    "phone": "+1 (845) 426-2854",
    "address": "117 Ingraham Street, Rosburg, Northern Mariana Islands, 525"
  },
  {
    "name": {
      "first": "Morton",
      "last": "Miller"
    },
    "contact": {
      "first": "Frank",
      "last": "Martinez"
    },
    "email": "Morton.Miller@gmail.com",
    "phone": "+1 (812) 548-3400",
    "address": "204 Fanchon Place, Elliott, Marshall Islands, 7309"
  },
  {
    "name": {
      "first": "Fry",
      "last": "Fox"
    },
    "contact": {
      "first": "Newton",
      "last": "Cooley"
    },
    "email": "Fry.Fox@gmail.com",
    "phone": "+1 (866) 479-3417",
    "address": "954 Mill Avenue, Aberdeen, North Carolina, 402"
  },
  {
    "name": {
      "first": "Roxanne",
      "last": "Wiggins"
    },
    "contact": {
      "first": "Helen",
      "last": "Huber"
    },
    "email": "Roxanne.Wiggins@gmail.com",
    "phone": "+1 (874) 472-2907",
    "address": "623 Surf Avenue, Waiohinu, Arizona, 3885"
  },
  {
    "name": {
      "first": "Stanley",
      "last": "Carr"
    },
    "contact": {
      "first": "Parker",
      "last": "Dominguez"
    },
    "email": "Stanley.Carr@gmail.com",
    "phone": "+1 (869) 567-2616",
    "address": "821 Willow Street, Tampico, Alabama, 1724"
  },
  {
    "name": {
      "first": "Charlene",
      "last": "Beasley"
    },
    "contact": {
      "first": "Sloan",
      "last": "House"
    },
    "email": "Charlene.Beasley@gmail.com",
    "phone": "+1 (857) 511-3833",
    "address": "868 Pineapple Street, Century, North Dakota, 2750"
  },
  {
    "name": {
      "first": "Callahan",
      "last": "Bentley"
    },
    "contact": {
      "first": "Jessica",
      "last": "Watkins"
    },
    "email": "Callahan.Bentley@gmail.com",
    "phone": "+1 (912) 409-2013",
    "address": "328 Grand Avenue, Harrodsburg, Oregon, 3107"
  },
  {
    "name": {
      "first": "Terra",
      "last": "Hansen"
    },
    "contact": {
      "first": "Carmen",
      "last": "Meadows"
    },
    "email": "Terra.Hansen@gmail.com",
    "phone": "+1 (876) 600-2276",
    "address": "938 Newkirk Avenue, Durham, Louisiana, 6990"
  },
  {
    "name": {
      "first": "Rae",
      "last": "Abbott"
    },
    "contact": {
      "first": "Jeanne",
      "last": "Roach"
    },
    "email": "Rae.Abbott@gmail.com",
    "phone": "+1 (848) 526-2777",
    "address": "335 Seacoast Terrace, Hailesboro, Maine, 3673"
  },
  {
    "name": {
      "first": "Alford",
      "last": "Hancock"
    },
    "contact": {
      "first": "Britt",
      "last": "Frederick"
    },
    "email": "Alford.Hancock@gmail.com",
    "phone": "+1 (823) 500-2642",
    "address": "945 Allen Avenue, Nicut, Virgin Islands, 9768"
  },
  {
    "name": {
      "first": "Perkins",
      "last": "Rhodes"
    },
    "contact": {
      "first": "Dotson",
      "last": "Levine"
    },
    "email": "Perkins.Rhodes@gmail.com",
    "phone": "+1 (907) 541-2802",
    "address": "969 Kingsway Place, Santel, Guam, 465"
  },
  {
    "name": {
      "first": "Garner",
      "last": "Ayers"
    },
    "contact": {
      "first": "Page",
      "last": "Rich"
    },
    "email": "Garner.Ayers@gmail.com",
    "phone": "+1 (892) 557-2384",
    "address": "295 Montrose Avenue, Mapletown, Indiana, 2819"
  },
  {
    "name": {
      "first": "Shelia",
      "last": "Mcdowell"
    },
    "contact": {
      "first": "Mariana",
      "last": "Alexander"
    },
    "email": "Shelia.Mcdowell@gmail.com",
    "phone": "+1 (800) 433-2507",
    "address": "691 Dooley Street, Whitmer, Idaho, 239"
  },
  {
    "name": {
      "first": "Mcguire",
      "last": "Hahn"
    },
    "contact": {
      "first": "Massey",
      "last": "Curry"
    },
    "email": "Mcguire.Hahn@gmail.com",
    "phone": "+1 (969) 583-2589",
    "address": "971 Hazel Court, Kaka, Ohio, 7372"
  },
  {
    "name": {
      "first": "Sheri",
      "last": "Rosa"
    },
    "contact": {
      "first": "Ramona",
      "last": "Flynn"
    },
    "email": "Sheri.Rosa@gmail.com",
    "phone": "+1 (810) 573-3538",
    "address": "716 Stratford Road, Belvoir, American Samoa, 980"
  },
  {
    "name": {
      "first": "Guzman",
      "last": "Roberson"
    },
    "contact": {
      "first": "Rosanna",
      "last": "Stokes"
    },
    "email": "Guzman.Roberson@gmail.com",
    "phone": "+1 (954) 522-2434",
    "address": "495 Eagle Street, Stouchsburg, Georgia, 1956"
  },
  {
    "name": {
      "first": "Lane",
      "last": "Marquez"
    },
    "contact": {
      "first": "Jacklyn",
      "last": "Garner"
    },
    "email": "Lane.Marquez@gmail.com",
    "phone": "+1 (971) 436-2638",
    "address": "418 Vandalia Avenue, Hampstead, South Dakota, 5946"
  },
  {
    "name": {
      "first": "Cameron",
      "last": "Kent"
    },
    "contact": {
      "first": "Hobbs",
      "last": "Rose"
    },
    "email": "Cameron.Kent@gmail.com",
    "phone": "+1 (935) 550-2585",
    "address": "647 Caton Place, Fairmount, Wisconsin, 4192"
  },
  {
    "name": {
      "first": "Perez",
      "last": "Nielsen"
    },
    "contact": {
      "first": "Leticia",
      "last": "Hobbs"
    },
    "email": "Perez.Nielsen@gmail.com",
    "phone": "+1 (848) 454-2743",
    "address": "242 Seagate Terrace, Cotopaxi, Maryland, 3313"
  },
  {
    "name": {
      "first": "Simone",
      "last": "Hutchinson"
    },
    "contact": {
      "first": "Evelyn",
      "last": "Daugherty"
    },
    "email": "Simone.Hutchinson@gmail.com",
    "phone": "+1 (854) 455-3522",
    "address": "223 Moore Street, Basye, New Mexico, 4210"
  },
  {
    "name": {
      "first": "Whitney",
      "last": "Guerra"
    },
    "contact": {
      "first": "Greer",
      "last": "Rojas"
    },
    "email": "Whitney.Guerra@gmail.com",
    "phone": "+1 (835) 515-3669",
    "address": "470 Friel Place, Sardis, Nevada, 7579"
  },
  {
    "name": {
      "first": "Thornton",
      "last": "Robertson"
    },
    "contact": {
      "first": "Zelma",
      "last": "Hendricks"
    },
    "email": "Thornton.Robertson@gmail.com",
    "phone": "+1 (856) 488-3749",
    "address": "419 Lake Place, Dixie, Puerto Rico, 1377"
  },
  {
    "name": {
      "first": "Jayne",
      "last": "Barr"
    },
    "contact": {
      "first": "Hendrix",
      "last": "Sanford"
    },
    "email": "Jayne.Barr@gmail.com",
    "phone": "+1 (803) 413-2184",
    "address": "661 Grimes Road, Clara, New York, 6752"
  },
  {
    "name": {
      "first": "Annette",
      "last": "Sampson"
    },
    "contact": {
      "first": "Leanna",
      "last": "Rosario"
    },
    "email": "Annette.Sampson@gmail.com",
    "phone": "+1 (946) 581-3370",
    "address": "497 Hall Street, Crawfordsville, South Carolina, 6731"
  },
  {
    "name": {
      "first": "Tia",
      "last": "Guzman"
    },
    "contact": {
      "first": "Burns",
      "last": "Carroll"
    },
    "email": "Tia.Guzman@gmail.com",
    "phone": "+1 (928) 572-3216",
    "address": "372 Linden Boulevard, Frierson, Michigan, 9203"
  },
  {
    "name": {
      "first": "Cobb",
      "last": "Wise"
    },
    "contact": {
      "first": "Kay",
      "last": "Frazier"
    },
    "email": "Cobb.Wise@gmail.com",
    "phone": "+1 (889) 478-3858",
    "address": "706 Central Avenue, Collins, Virginia, 3283"
  },
  {
    "name": {
      "first": "Mooney",
      "last": "Wiley"
    },
    "contact": {
      "first": "Gilbert",
      "last": "Mcknight"
    },
    "email": "Mooney.Wiley@gmail.com",
    "phone": "+1 (830) 432-3071",
    "address": "284 Dinsmore Place, Warren, New Jersey, 3182"
  },
  {
    "name": {
      "first": "Wood",
      "last": "Wood"
    },
    "contact": {
      "first": "Solis",
      "last": "Owens"
    },
    "email": "Wood.Wood@gmail.com",
    "phone": "+1 (802) 557-2540",
    "address": "226 Underhill Avenue, Haring, Rhode Island, 1854"
  },
  {
    "name": {
      "first": "Schwartz",
      "last": "Skinner"
    },
    "contact": {
      "first": "Foley",
      "last": "Osborne"
    },
    "email": "Schwartz.Skinner@gmail.com",
    "phone": "+1 (828) 506-2378",
    "address": "650 Bay Parkway, Fruitdale, Federated States Of Micronesia, 6434"
  },
  {
    "name": {
      "first": "Hood",
      "last": "Walters"
    },
    "contact": {
      "first": "Franks",
      "last": "Holman"
    },
    "email": "Hood.Walters@gmail.com",
    "phone": "+1 (957) 528-3958",
    "address": "296 Emerald Street, Avalon, Colorado, 3826"
  },
  {
    "name": {
      "first": "Allen",
      "last": "Medina"
    },
    "contact": {
      "first": "Shelby",
      "last": "Barron"
    },
    "email": "Allen.Medina@gmail.com",
    "phone": "+1 (961) 590-2667",
    "address": "608 Matthews Court, Moscow, Oklahoma, 5984"
  },
  {
    "name": {
      "first": "Ann",
      "last": "Hester"
    },
    "contact": {
      "first": "Dorsey",
      "last": "Walter"
    },
    "email": "Ann.Hester@gmail.com",
    "phone": "+1 (999) 420-3795",
    "address": "174 Bradford Street, Escondida, Illinois, 613"
  },
  {
    "name": {
      "first": "Marylou",
      "last": "Farley"
    },
    "contact": {
      "first": "Marcia",
      "last": "Howell"
    },
    "email": "Marylou.Farley@gmail.com",
    "phone": "+1 (822) 440-2749",
    "address": "557 Howard Avenue, Islandia, Minnesota, 4536"
  },
  {
    "name": {
      "first": "Knox",
      "last": "Pitts"
    },
    "contact": {
      "first": "Chen",
      "last": "Juarez"
    },
    "email": "Knox.Pitts@gmail.com",
    "phone": "+1 (976) 575-2132",
    "address": "214 Suydam Street, Baker, Kansas, 7869"
  },
  {
    "name": {
      "first": "Gay",
      "last": "Hickman"
    },
    "contact": {
      "first": "Courtney",
      "last": "Snow"
    },
    "email": "Gay.Hickman@gmail.com",
    "phone": "+1 (949) 554-2154",
    "address": "511 McClancy Place, Barronett, West Virginia, 5033"
  },
  {
    "name": {
      "first": "Olivia",
      "last": "Bullock"
    },
    "contact": {
      "first": "Violet",
      "last": "Murphy"
    },
    "email": "Olivia.Bullock@gmail.com",
    "phone": "+1 (998) 413-3265",
    "address": "591 Dupont Street, Wilsonia, Iowa, 3847"
  },
  {
    "name": {
      "first": "Brandi",
      "last": "Curtis"
    },
    "contact": {
      "first": "Wade",
      "last": "Barnes"
    },
    "email": "Brandi.Curtis@gmail.com",
    "phone": "+1 (819) 467-2895",
    "address": "348 Love Lane, Wattsville, Montana, 2570"
  },
  {
    "name": {
      "first": "Mendez",
      "last": "Welch"
    },
    "contact": {
      "first": "Lavonne",
      "last": "Perez"
    },
    "email": "Mendez.Welch@gmail.com",
    "phone": "+1 (808) 435-3311",
    "address": "476 Bijou Avenue, Benson, Alaska, 5083"
  },
  {
    "name": {
      "first": "Cline",
      "last": "Herman"
    },
    "contact": {
      "first": "Baker",
      "last": "Whitney"
    },
    "email": "Cline.Herman@gmail.com",
    "phone": "+1 (883) 445-2229",
    "address": "732 Hendrickson Street, Newkirk, Delaware, 7762"
  },
  {
    "name": {
      "first": "Gay",
      "last": "Kinney"
    },
    "contact": {
      "first": "Lucas",
      "last": "Stark"
    },
    "email": "Gay.Kinney@gmail.com",
    "phone": "+1 (968) 467-2118",
    "address": "729 Campus Place, Loma, Utah, 6699"
  },
  {
    "name": {
      "first": "Luna",
      "last": "Gill"
    },
    "contact": {
      "first": "Vega",
      "last": "Ashley"
    },
    "email": "Luna.Gill@gmail.com",
    "phone": "+1 (859) 440-3308",
    "address": "605 Beadel Street, Berwind, Hawaii, 2535"
  },
  {
    "name": {
      "first": "Skinner",
      "last": "Martin"
    },
    "contact": {
      "first": "Mcdowell",
      "last": "Nelson"
    },
    "email": "Skinner.Martin@gmail.com",
    "phone": "+1 (996) 471-3569",
    "address": "472 Pierrepont Street, Allamuchy, Connecticut, 837"
  },
  {
    "name": {
      "first": "Vanessa",
      "last": "Chen"
    },
    "contact": {
      "first": "Buck",
      "last": "Avery"
    },
    "email": "Vanessa.Chen@gmail.com",
    "phone": "+1 (947) 507-3348",
    "address": "256 Varick Avenue, Croom, Pennsylvania, 202"
  },
  {
    "name": {
      "first": "Hays",
      "last": "Talley"
    },
    "contact": {
      "first": "Powers",
      "last": "Nunez"
    },
    "email": "Hays.Talley@gmail.com",
    "phone": "+1 (988) 537-2009",
    "address": "723 Lynch Street, Lindcove, Washington, 4463"
  },
  {
    "name": {
      "first": "Oliver",
      "last": "Silva"
    },
    "contact": {
      "first": "Cindy",
      "last": "Lindsay"
    },
    "email": "Oliver.Silva@gmail.com",
    "phone": "+1 (953) 569-3650",
    "address": "239 Cambridge Place, Trexlertown, Mississippi, 1745"
  },
  {
    "name": {
      "first": "Elisa",
      "last": "Sanders"
    },
    "contact": {
      "first": "Justice",
      "last": "Sullivan"
    },
    "email": "Elisa.Sanders@gmail.com",
    "phone": "+1 (921) 467-3816",
    "address": "141 Coventry Road, Coinjock, Massachusetts, 6319"
  },
  {
    "name": {
      "first": "Mitchell",
      "last": "Goodman"
    },
    "contact": {
      "first": "Valeria",
      "last": "Whitehead"
    },
    "email": "Mitchell.Goodman@gmail.com",
    "phone": "+1 (998) 459-3788",
    "address": "728 Cortelyou Road, Soudan, Arkansas, 1118"
  },
  {
    "name": {
      "first": "Hall",
      "last": "Campos"
    },
    "contact": {
      "first": "Clay",
      "last": "Chapman"
    },
    "email": "Hall.Campos@gmail.com",
    "phone": "+1 (984) 438-2008",
    "address": "402 Stone Avenue, Cecilia, Missouri, 5621"
  },
  {
    "name": {
      "first": "Nash",
      "last": "Emerson"
    },
    "contact": {
      "first": "Sheree",
      "last": "Raymond"
    },
    "email": "Nash.Emerson@gmail.com",
    "phone": "+1 (868) 514-3772",
    "address": "246 Brevoort Place, Brogan, Florida, 284"
  },
  {
    "name": {
      "first": "Yolanda",
      "last": "Carney"
    },
    "contact": {
      "first": "Sylvia",
      "last": "Collier"
    },
    "email": "Yolanda.Carney@gmail.com",
    "phone": "+1 (965) 449-2434",
    "address": "273 Cox Place, Haena, Tennessee, 950"
  },
  {
    "name": {
      "first": "Lidia",
      "last": "Ramos"
    },
    "contact": {
      "first": "Alejandra",
      "last": "Kramer"
    },
    "email": "Lidia.Ramos@gmail.com",
    "phone": "+1 (930) 521-3803",
    "address": "866 Richardson Street, Trucksville, Nebraska, 6925"
  },
  {
    "name": {
      "first": "Chan",
      "last": "Mcclain"
    },
    "contact": {
      "first": "Doreen",
      "last": "Oneil"
    },
    "email": "Chan.Mcclain@gmail.com",
    "phone": "+1 (855) 499-3195",
    "address": "978 Adelphi Street, Richford, Vermont, 3048"
  },
  {
    "name": {
      "first": "Atkinson",
      "last": "Battle"
    },
    "contact": {
      "first": "Pacheco",
      "last": "Best"
    },
    "email": "Atkinson.Battle@gmail.com",
    "phone": "+1 (964) 521-2117",
    "address": "762 McDonald Avenue, Blue, Texas, 2454"
  },
  {
    "name": {
      "first": "Stacy",
      "last": "Conley"
    },
    "contact": {
      "first": "Knight",
      "last": "Richmond"
    },
    "email": "Stacy.Conley@gmail.com",
    "phone": "+1 (948) 463-3261",
    "address": "561 Fleet Place, Fairforest, District Of Columbia, 7456"
  },
  {
    "name": {
      "first": "Howard",
      "last": "Carey"
    },
    "contact": {
      "first": "Sampson",
      "last": "Albert"
    },
    "email": "Howard.Carey@gmail.com",
    "phone": "+1 (924) 413-3551",
    "address": "966 Stillwell Place, Wedgewood, Wyoming, 4783"
  },
  {
    "name": {
      "first": "Stanton",
      "last": "Kane"
    },
    "contact": {
      "first": "Leigh",
      "last": "Cook"
    },
    "email": "Stanton.Kane@gmail.com",
    "phone": "+1 (942) 553-3419",
    "address": "171 Kenmore Court, Churchill, Kentucky, 8528"
  },
  {
    "name": {
      "first": "Orr",
      "last": "Hayden"
    },
    "contact": {
      "first": "Ramos",
      "last": "Meyer"
    },
    "email": "Orr.Hayden@gmail.com",
    "phone": "+1 (870) 565-2658",
    "address": "410 Lawrence Avenue, Calverton, California, 4971"
  },
  {
    "name": {
      "first": "Margery",
      "last": "Joyce"
    },
    "contact": {
      "first": "Sherrie",
      "last": "Pittman"
    },
    "email": "Margery.Joyce@gmail.com",
    "phone": "+1 (909) 553-3685",
    "address": "655 Broome Street, Aguila, Palau, 4348"
  },
  {
    "name": {
      "first": "Jamie",
      "last": "Doyle"
    },
    "contact": {
      "first": "Freida",
      "last": "Stevens"
    },
    "email": "Jamie.Doyle@gmail.com",
    "phone": "+1 (997) 493-3433",
    "address": "226 Dover Street, Corinne, Northern Mariana Islands, 4705"
  },
  {
    "name": {
      "first": "Latisha",
      "last": "Jenkins"
    },
    "contact": {
      "first": "Concepcion",
      "last": "Gamble"
    },
    "email": "Latisha.Jenkins@gmail.com",
    "phone": "+1 (824) 423-2093",
    "address": "517 Berriman Street, Nelson, Marshall Islands, 6558"
  },
  {
    "name": {
      "first": "Roslyn",
      "last": "Dorsey"
    },
    "contact": {
      "first": "Kirby",
      "last": "Ingram"
    },
    "email": "Roslyn.Dorsey@gmail.com",
    "phone": "+1 (851) 459-2470",
    "address": "427 Rewe Street, Savannah, North Carolina, 7383"
  },
  {
    "name": {
      "first": "Bowman",
      "last": "Freeman"
    },
    "contact": {
      "first": "Wilkins",
      "last": "Burgess"
    },
    "email": "Bowman.Freeman@gmail.com",
    "phone": "+1 (942) 492-2977",
    "address": "870 Dorset Street, Woodlake, Arizona, 6672"
  },
  {
    "name": {
      "first": "Foster",
      "last": "Olson"
    },
    "contact": {
      "first": "Myrtle",
      "last": "Burke"
    },
    "email": "Foster.Olson@gmail.com",
    "phone": "+1 (984) 584-2046",
    "address": "117 Bay Street, Chumuckla, Alabama, 9021"
  },
  {
    "name": {
      "first": "Velez",
      "last": "Jennings"
    },
    "contact": {
      "first": "Leta",
      "last": "Leonard"
    },
    "email": "Velez.Jennings@gmail.com",
    "phone": "+1 (870) 457-2589",
    "address": "813 Seaview Court, Muse, North Dakota, 9047"
  },
  {
    "name": {
      "first": "Kerr",
      "last": "Stephens"
    },
    "contact": {
      "first": "Flowers",
      "last": "James"
    },
    "email": "Kerr.Stephens@gmail.com",
    "phone": "+1 (897) 504-3549",
    "address": "492 Thames Street, Cloverdale, Oregon, 2212"
  },
  {
    "name": {
      "first": "Curry",
      "last": "Vasquez"
    },
    "contact": {
      "first": "May",
      "last": "Knowles"
    },
    "email": "Curry.Vasquez@gmail.com",
    "phone": "+1 (873) 577-2351",
    "address": "203 Jerome Street, Roy, Louisiana, 5489"
  },
  {
    "name": {
      "first": "Mueller",
      "last": "Merrill"
    },
    "contact": {
      "first": "Bridgett",
      "last": "Lara"
    },
    "email": "Mueller.Merrill@gmail.com",
    "phone": "+1 (954) 592-3298",
    "address": "266 Hampton Place, Zarephath, Maine, 927"
  },
  {
    "name": {
      "first": "Dolly",
      "last": "Tanner"
    },
    "contact": {
      "first": "Simon",
      "last": "Leblanc"
    },
    "email": "Dolly.Tanner@gmail.com",
    "phone": "+1 (945) 480-3929",
    "address": "680 Dumont Avenue, Wikieup, Virgin Islands, 4853"
  },
  {
    "name": {
      "first": "Morales",
      "last": "Burton"
    },
    "contact": {
      "first": "Calderon",
      "last": "Wilcox"
    },
    "email": "Morales.Burton@gmail.com",
    "phone": "+1 (896) 483-3419",
    "address": "776 Wyckoff Street, Hayes, Guam, 8215"
  },
  {
    "name": {
      "first": "Mccarty",
      "last": "Branch"
    },
    "contact": {
      "first": "Shawn",
      "last": "Pace"
    },
    "email": "Mccarty.Branch@gmail.com",
    "phone": "+1 (894) 484-3565",
    "address": "829 Meserole Avenue, Blodgett, Indiana, 426"
  },
  {
    "name": {
      "first": "Amanda",
      "last": "Rowland"
    },
    "contact": {
      "first": "Turner",
      "last": "Hinton"
    },
    "email": "Amanda.Rowland@gmail.com",
    "phone": "+1 (845) 552-2039",
    "address": "818 Oliver Street, Day, Idaho, 2407"
  },
  {
    "name": {
      "first": "Reva",
      "last": "Hall"
    },
    "contact": {
      "first": "Pearl",
      "last": "Love"
    },
    "email": "Reva.Hall@gmail.com",
    "phone": "+1 (916) 510-2242",
    "address": "718 Perry Terrace, Greenwich, Ohio, 392"
  },
  {
    "name": {
      "first": "Wall",
      "last": "Glass"
    },
    "contact": {
      "first": "Mccormick",
      "last": "Underwood"
    },
    "email": "Wall.Glass@gmail.com",
    "phone": "+1 (879) 474-3711",
    "address": "660 Hoyts Lane, Crenshaw, American Samoa, 7344"
  },
  {
    "name": {
      "first": "Rhea",
      "last": "Roman"
    },
    "contact": {
      "first": "Mccullough",
      "last": "Vaughan"
    },
    "email": "Rhea.Roman@gmail.com",
    "phone": "+1 (978) 508-3247",
    "address": "964 Monroe Place, Townsend, Georgia, 590"
  },
  {
    "name": {
      "first": "Whitley",
      "last": "Craft"
    },
    "contact": {
      "first": "Herrera",
      "last": "Travis"
    },
    "email": "Whitley.Craft@gmail.com",
    "phone": "+1 (895) 567-3613",
    "address": "754 Victor Road, Sandston, South Dakota, 3410"
  },
  {
    "name": {
      "first": "Kristen",
      "last": "Grimes"
    },
    "contact": {
      "first": "Wilder",
      "last": "Richardson"
    },
    "email": "Kristen.Grimes@gmail.com",
    "phone": "+1 (916) 478-3114",
    "address": "555 Columbus Place, Grapeview, Wisconsin, 8406"
  },
  {
    "name": {
      "first": "Mcdonald",
      "last": "Barker"
    },
    "contact": {
      "first": "Ellison",
      "last": "Rice"
    },
    "email": "Mcdonald.Barker@gmail.com",
    "phone": "+1 (931) 413-2783",
    "address": "631 Schaefer Street, Kieler, Maryland, 7769"
  },
  {
    "name": {
      "first": "Joanna",
      "last": "Mullen"
    },
    "contact": {
      "first": "Laverne",
      "last": "Velasquez"
    },
    "email": "Joanna.Mullen@gmail.com",
    "phone": "+1 (996) 400-3134",
    "address": "289 Tillary Street, Waterview, New Mexico, 7661"
  },
  {
    "name": {
      "first": "Kendra",
      "last": "Greene"
    },
    "contact": {
      "first": "Emma",
      "last": "Thompson"
    },
    "email": "Kendra.Greene@gmail.com",
    "phone": "+1 (982) 407-2166",
    "address": "536 Sunnyside Court, Harold, Nevada, 256"
  },
  {
    "name": {
      "first": "Goodman",
      "last": "Todd"
    },
    "contact": {
      "first": "Marva",
      "last": "Beard"
    },
    "email": "Goodman.Todd@gmail.com",
    "phone": "+1 (951) 419-2931",
    "address": "653 Overbaugh Place, Chautauqua, Puerto Rico, 5905"
  },
  {
    "name": {
      "first": "Norma",
      "last": "Collins"
    },
    "contact": {
      "first": "Jacqueline",
      "last": "Elliott"
    },
    "email": "Norma.Collins@gmail.com",
    "phone": "+1 (802) 544-2869",
    "address": "651 Celeste Court, Holcombe, New York, 904"
  },
  {
    "name": {
      "first": "Stone",
      "last": "Delgado"
    },
    "contact": {
      "first": "Tonia",
      "last": "Sharpe"
    },
    "email": "Stone.Delgado@gmail.com",
    "phone": "+1 (951) 533-3478",
    "address": "454 Hoyt Street, Walton, South Carolina, 3480"
  },
  {
    "name": {
      "first": "Salazar",
      "last": "Sawyer"
    },
    "contact": {
      "first": "Rose",
      "last": "Rocha"
    },
    "email": "Salazar.Sawyer@gmail.com",
    "phone": "+1 (878) 434-3366",
    "address": "785 Rogers Avenue, Gratton, Michigan, 8004"
  },
  {
    "name": {
      "first": "Riley",
      "last": "Everett"
    },
    "contact": {
      "first": "Hardin",
      "last": "Powell"
    },
    "email": "Riley.Everett@gmail.com",
    "phone": "+1 (983) 543-3866",
    "address": "982 Canda Avenue, Brazos, Virginia, 2868"
  },
  {
    "name": {
      "first": "Desiree",
      "last": "Sykes"
    },
    "contact": {
      "first": "Ochoa",
      "last": "Porter"
    },
    "email": "Desiree.Sykes@gmail.com",
    "phone": "+1 (833) 404-2029",
    "address": "873 Lefferts Place, Harmon, New Jersey, 7601"
  },
  {
    "name": {
      "first": "Latoya",
      "last": "Hartman"
    },
    "contact": {
      "first": "Charles",
      "last": "Bradford"
    },
    "email": "Latoya.Hartman@gmail.com",
    "phone": "+1 (898) 492-3052",
    "address": "855 Shale Street, Hatteras, Rhode Island, 8437"
  },
  {
    "name": {
      "first": "Nielsen",
      "last": "Sellers"
    },
    "contact": {
      "first": "Stefanie",
      "last": "Fischer"
    },
    "email": "Nielsen.Sellers@gmail.com",
    "phone": "+1 (880) 600-2610",
    "address": "174 Kermit Place, Dunbar, Federated States Of Micronesia, 2695"
  },
  {
    "name": {
      "first": "Sosa",
      "last": "Moon"
    },
    "contact": {
      "first": "Melva",
      "last": "Frost"
    },
    "email": "Sosa.Moon@gmail.com",
    "phone": "+1 (807) 545-3235",
    "address": "135 Halleck Street, Coaldale, Colorado, 4282"
  },
  {
    "name": {
      "first": "Irma",
      "last": "Levy"
    },
    "contact": {
      "first": "Brewer",
      "last": "Graves"
    },
    "email": "Irma.Levy@gmail.com",
    "phone": "+1 (977) 449-2179",
    "address": "892 Lorimer Street, Vallonia, Oklahoma, 9128"
  },
  {
    "name": {
      "first": "Edwina",
      "last": "Mcintosh"
    },
    "contact": {
      "first": "Higgins",
      "last": "Lowery"
    },
    "email": "Edwina.Mcintosh@gmail.com",
    "phone": "+1 (866) 483-3588",
    "address": "388 Harbor Court, Tonopah, Illinois, 3360"
  }
]